EF
…
DF <- read_csv('DFB.csv')

Rows: 1690 Columns: 8
── Column specification ────────────────────────────────────────────────────────
Delimiter: ","
chr (1): Tipo
dbl (5): Id, Intento, Nota, Tiempo, Duracion
lgl (2): Aprobado, Distinguido

ℹ Use `spec()` to retrieve the full column specification for this data.
ℹ Specify the column types or set `show_col_types = FALSE` to quiet this message.

DF

# A tibble: 1,690 × 8
      Id Tipo  Intento  Nota Tiempo Aprobado Distinguido Duracion
   <dbl> <chr>   <dbl> <dbl>  <dbl> <lgl>    <lgl>          <dbl>
 1  1137 C           1    57   7.24 TRUE     FALSE          0.230
 2   619 B           1    67   7.33 TRUE     FALSE          0.322
 3   139 B           1    69   7.36 TRUE     FALSE          0.358
 4  1125 C           1    50   7.39 FALSE    FALSE          0.388
 5   250 B           1    62   7.40 TRUE     FALSE          0.395
 6    80 B           1    65   7.42 TRUE     FALSE          0.410
 7   195 B           1    60   7.42 TRUE     FALSE          0.412
 8   760 C           1    62   7.46 TRUE     FALSE          0.456
 9   161 C           1    58   7.47 TRUE     FALSE          0.465
10   518 C           1    60   7.50 TRUE     FALSE          0.492
# ℹ 1,680 more rows
…
mean(DF$Nota)

[1] 60.7426

DF %>% filter(Nota>= 55) %>% select(Nota) %>% count()/nrow(DF)

          n
1 0.7118343

Pregunta 7

DF %>% filter(Tipo == 'B' & Nota >= 55) -> DF8
DF8

# A tibble: 603 × 8
      Id Tipo  Intento  Nota Tiempo Aprobado Distinguido Duracion
   <dbl> <chr>   <dbl> <dbl>  <dbl> <lgl>    <lgl>          <dbl>
 1   619 B           1    67   7.33 TRUE     FALSE          0.322
 2   139 B           1    69   7.36 TRUE     FALSE          0.358
 3   250 B           1    62   7.40 TRUE     FALSE          0.395
 4    80 B           1    65   7.42 TRUE     FALSE          0.410
 5   195 B           1    60   7.42 TRUE     FALSE          0.412
 6   899 B           1    63   7.51 TRUE     FALSE          0.500
 7  1170 B           1    69   7.51 TRUE     FALSE          0.504
 8   206 B           1    68   7.55 TRUE     FALSE          0.547
 9   804 B           1    67   7.55 TRUE     FALSE          0.548
10   371 B           1    67   7.56 TRUE     FALSE          0.558
# ℹ 593 more rows
…
