DB2_limpieza
…
Ahora, se aplicará la restricción: numberOfUsers >= 10:

dataframe <- dataframe[dataframe$numberOfUsers > 10,]

El tamaño efectivo sería:

nrow(dataframe)

[1] 1267

Nuestra base de datos limpia quedaría:

dataframe

# A tibble: 1,267 × 7
   title      appeared type           rank numberOfJobs numberOfUsers country   
   <chr>         <dbl> <chr>         <dbl>        <dbl>         <dbl> <chr>     
 1 Java           1995 pl                0        85206       5550123 United St…
 2 JavaScript     1995 pl                1        63993       5962666 United St…
 3 C              1972 pl                2        59919       3793768 United St…
 4 Python         1991 pl                3        46976       2818037 Netherlan…
 5 SQL            1974 queryLanguage     4       219617       7179119 United St…
 6 C++            1985 pl                5        61098       4128238 United St…
 7 PHP            1995 pl                9        30349       2356101 Canada    
 8 Perl           1987 pl               10        13482        491984 United St…
 9 MATLAB         1984 pl               11        32228       2661579 United St…
10 Ruby           1995 pl               12        11438        357730 Japan     
# ℹ 1,257 more rows
